Life Expectancy from WHO Dataset
…
thinness_5_9_years
0.2175

Income_composition_of_resources
0.4793

Schooling
0.5111

developed
0.232

## # A tibble: 2,938 × 11
##    Life_expectancy Adult_Mortality   BMI  Polio Diphtheria HIV_or_AID
##              <dbl>           <dbl> <dbl>  <dbl>      <dbl>      <dbl>
##  1           0.545           0.363 0.210 0.0312      0.650          0
##  2           0.448           0.374 0.204 0.573       0.619          0
##  3           0.448           0.370 0.198 0.615       0.639          0
##  4           0.440           0.375 0.192 0.667       0.670          0
##  5           0.434           0.380 0.188 0.677       0.680          0
##  6           0.427           0.385 0.182 0.656       0.660          0
##  7           0.423           0.388 0.176 0.625       0.629          0
##  8           0.414           0.396 0.170 0.635       0.639          0
##  9           0.402           0.407 0.164 0.625       0.629          0
## 10           0.398           0.407 0.159 0.573       0.577          0
## # … with 2,928 more rows, and 5 more variables: thinness_1_19_years <dbl>,
## #   thinness_5_9_years <dbl>, Income_composition_of_resources <dbl>,
## #   Schooling <dbl>, developed <dbl>
…
